(kicad_symbol_lib (version 20200820) (host kicad_symbol_editor "(5.99.0-2922-gc1a97fc0c)")
  (symbol "heap:LIS331DL"
    (property "Reference" "U" (id 0) (at 7.62 -21.59 0)
      (effects (font (size 1.524 1.524)))
    )
    (property "Value" "LIS331DL" (id 1) (at 7.62 3.81 0)
      (effects (font (size 1.524 1.524)))
    )
    (property "Footprint" "heap:LIS331DHTR" (id 2) (at 8.89 6.35 0)
      (effects (font (size 1.524 1.524)) hide)
    )
    (property "Datasheet" "https://www.electronshik.ru/item/ST/LIS331DLHTR" (id 3) (at 10.16 8.89 0)
      (effects (font (size 1.524 1.524)) hide)
    )
    (property "ki_description" "Акселерометр LIS331DLHTR, ST microelectronics, типоразмер LGA-16" (id 4) (at 0 0 0)
      (effects (font (size 1.27 1.27)) hide)
    )
    (symbol "LIS331DL_0_1"
      (rectangle (start 0 1.27) (end 30.48 -19.05)
        (stroke (width 0)) (fill (type none))
      )
    )
    (symbol "LIS331DL_1_1"
      (pin power_in line (at -5.08 0 0) (length 5.08)
        (name "VDD_IO" (effects (font (size 1.27 1.27))))
        (number "1" (effects (font (size 1.27 1.27))))
      )
      (pin power_in line (at 35.56 -15.24 180) (length 5.08)
        (name "RES(GND)" (effects (font (size 1.27 1.27))))
        (number "10" (effects (font (size 1.27 1.27))))
      )
      (pin bidirectional line (at 35.56 -12.7 180) (length 5.08)
        (name "INT1" (effects (font (size 1.27 1.27))))
        (number "11" (effects (font (size 1.27 1.27))))
      )
      (pin power_in line (at 35.56 -10.16 180) (length 5.08)
        (name "GND" (effects (font (size 1.27 1.27))))
        (number "12" (effects (font (size 1.27 1.27))))
      )
      (pin power_in line (at 35.56 -7.62 180) (length 5.08)
        (name "GND" (effects (font (size 1.27 1.27))))
        (number "13" (effects (font (size 1.27 1.27))))
      )
      (pin power_in line (at 35.56 -5.08 180) (length 5.08)
        (name "VDD" (effects (font (size 1.27 1.27))))
        (number "14" (effects (font (size 1.27 1.27))))
      )
      (pin power_in line (at 35.56 -2.54 180) (length 5.08)
        (name "RES(VDD)" (effects (font (size 1.27 1.27))))
        (number "15" (effects (font (size 1.27 1.27))))
      )
      (pin power_in line (at 35.56 0 180) (length 5.08)
        (name "GND" (effects (font (size 1.27 1.27))))
        (number "16" (effects (font (size 1.27 1.27))))
      )
      (pin unconnected line (at -5.08 -2.54 0) (length 5.08)
        (name "NC" (effects (font (size 1.27 1.27))))
        (number "2" (effects (font (size 1.27 1.27))))
      )
      (pin unconnected line (at -5.08 -5.08 0) (length 5.08)
        (name "NC" (effects (font (size 1.27 1.27))))
        (number "3" (effects (font (size 1.27 1.27))))
      )
      (pin input line (at -5.08 -7.62 0) (length 5.08)
        (name "SCL/SPI_CLK" (effects (font (size 1.27 1.27))))
        (number "4" (effects (font (size 1.27 1.27))))
      )
      (pin power_in line (at -5.08 -10.16 0) (length 5.08)
        (name "GND" (effects (font (size 1.27 1.27))))
        (number "5" (effects (font (size 1.27 1.27))))
      )
      (pin bidirectional line (at -5.08 -12.7 0) (length 5.08)
        (name "SDA/SPI_MOSI" (effects (font (size 1.27 1.27))))
        (number "6" (effects (font (size 1.27 1.27))))
      )
      (pin bidirectional line (at -5.08 -15.24 0) (length 5.08)
        (name "SA0/SPI_MISO" (effects (font (size 1.27 1.27))))
        (number "7" (effects (font (size 1.27 1.27))))
      )
      (pin input line (at -5.08 -17.78 0) (length 5.08)
        (name "~CS" (effects (font (size 1.27 1.27))))
        (number "8" (effects (font (size 1.27 1.27))))
      )
      (pin bidirectional line (at 35.56 -17.78 180) (length 5.08)
        (name "INT2" (effects (font (size 1.27 1.27))))
        (number "9" (effects (font (size 1.27 1.27))))
      )
    )
  )
  (symbol "heap:LIS331HH" (pin_names (offset 0.508))
    (property "Reference" "U" (id 0) (at -7.62 11.43 0)
      (effects (font (size 1.27 1.27)) (justify left))
    )
    (property "Value" "LIS331HH" (id 1) (at 3.81 11.43 0)
      (effects (font (size 1.27 1.27)) (justify left))
    )
    (property "Footprint" "Package_LGA:LGA-16_3x3mm_P0.5mm_LayoutBorder3x5y" (id 2) (at 0 -15.24 0)
      (effects (font (size 1.27 1.27)) hide)
    )
    (property "Datasheet" "http://www.st.com/st-web-ui/static/active/en/resource/technical/document/datasheet/CD00250937.pdf" (id 3) (at -2.54 6.35 0)
      (effects (font (size 1.27 1.27)) hide)
    )
    (property "ki_keywords" "3-axis accelerometer spi i2c mems" (id 4) (at 0 0 0)
      (effects (font (size 1.27 1.27)) hide)
    )
    (property "ki_description" "3-Axis Accelerometer, 6/12/24g range, 1000Hz, I2C and SPI interface" (id 5) (at 0 0 0)
      (effects (font (size 1.27 1.27)) hide)
    )
    (property "ki_fp_filters" "LGA-*3x3mm*P0.5mm*LayoutBorder3x5y*" (id 6) (at 0 0 0)
      (effects (font (size 1.27 1.27)) hide)
    )
    (symbol "LIS331HH_0_1"
      (rectangle (start -7.62 10.16) (end 10.16 -10.16)
        (stroke (width 0.254)) (fill (type background))
      )
    )
    (symbol "LIS331HH_1_1"
      (pin power_in line (at 2.54 12.7 270) (length 2.54)
        (name "Vdd" (effects (font (size 1.27 1.27))))
        (number "1" (effects (font (size 1.27 1.27))))
      )
      (pin power_in line (at 5.08 -12.7 90) (length 2.54)
        (name "GND" (effects (font (size 1.27 1.27))))
        (number "10" (effects (font (size 1.27 1.27))))
      )
      (pin output line (at 12.7 2.54 180) (length 2.54)
        (name "INT1" (effects (font (size 1.27 1.27))))
        (number "11" (effects (font (size 1.27 1.27))))
      )
      (pin power_in line (at 0 -12.7 90) (length 2.54)
        (name "GND" (effects (font (size 1.27 1.27))))
        (number "12" (effects (font (size 1.27 1.27))))
      )
      (pin power_in line (at -2.54 -12.7 90) (length 2.54)
        (name "GND" (effects (font (size 1.27 1.27))))
        (number "13" (effects (font (size 1.27 1.27))))
      )
      (pin power_in line (at 0 12.7 270) (length 2.54)
        (name "Vdd" (effects (font (size 1.27 1.27))))
        (number "14" (effects (font (size 1.27 1.27))))
      )
      (pin power_in line (at -2.54 12.7 270) (length 2.54)
        (name "Vdd" (effects (font (size 1.27 1.27))))
        (number "15" (effects (font (size 1.27 1.27))))
      )
      (pin power_in line (at 2.54 -12.7 90) (length 2.54)
        (name "GND" (effects (font (size 1.27 1.27))))
        (number "16" (effects (font (size 1.27 1.27))))
      )
      (pin unconnected line (at 10.16 -2.54 180) (length 2.54) hide
        (name "NC" (effects (font (size 1.27 1.27))))
        (number "2" (effects (font (size 1.27 1.27))))
      )
      (pin unconnected line (at 10.16 -5.08 180) (length 2.54) hide
        (name "NC" (effects (font (size 1.27 1.27))))
        (number "3" (effects (font (size 1.27 1.27))))
      )
      (pin input line (at -10.16 -2.54 0) (length 2.54)
        (name "SCL/SPC" (effects (font (size 1.27 1.27))))
        (number "4" (effects (font (size 1.27 1.27))))
      )
      (pin power_in line (at -5.08 -12.7 90) (length 2.54)
        (name "GND" (effects (font (size 1.27 1.27))))
        (number "5" (effects (font (size 1.27 1.27))))
      )
      (pin bidirectional line (at -10.16 2.54 0) (length 2.54)
        (name "SDA/SDI" (effects (font (size 1.27 1.27))))
        (number "6" (effects (font (size 1.27 1.27))))
      )
      (pin output line (at -10.16 0 0) (length 2.54)
        (name "SA0/SDO" (effects (font (size 1.27 1.27))))
        (number "7" (effects (font (size 1.27 1.27))))
      )
      (pin input line (at -10.16 5.08 0) (length 2.54)
        (name "~CS" (effects (font (size 1.27 1.27))))
        (number "8" (effects (font (size 1.27 1.27))))
      )
      (pin output line (at 12.7 0 180) (length 2.54)
        (name "INT2" (effects (font (size 1.27 1.27))))
        (number "9" (effects (font (size 1.27 1.27))))
      )
    )
  )
)
